Car Name,Price,Condition,Year,Fuel Type
Toyota Corolla,25000,New,2023,Gasoline
Honda Civic,22000,Used,2021,Gasoline
Ford Mustang,35000,New,2023,Gasoline
Chevrolet Camaro,40000,Used,2020,Gasoline
Tesla Model 3,50000,New,2023,Electric
BMW X5,60000,Used,2022,Gasoline
Audi A4,30000,New,2023,Diesel
